// Jest Snapshot v1, https://goo.gl/fbAQLP

exports[`rule missing-doctype should contain documentation 1`] = `
Object {
  "description": "Requires that the document contains a doctype.",
  "url": "https://html-validate.org/rules/missing-doctype.html",
}
`;

exports[`rule missing-doctype smoketest 1`] = `
Array [
  Object {
    "errorCount": 1,
    "filePath": "test-files/rules/missing-doctype.html",
    "messages": Array [
      Object {
        "column": 1,
        "context": undefined,
        "line": 1,
        "message": "Document is missing doctype",
        "offset": 0,
        "ruleId": "missing-doctype",
        "selector": null,
        "severity": 2,
        "size": 0,
      },
    ],
    "source": "<html>
	<head></head>
	<body></body>
</html>
",
    "warningCount": 0,
  },
]
`;
