// Jest Snapshot v1, https://goo.gl/fbAQLP

exports[`docs/rules/no-autoplay.md inline validation: correct 1`] = `Array []`;

exports[`docs/rules/no-autoplay.md inline validation: incorrect 1`] = `
Array [
  Object {
    "errorCount": 1,
    "filePath": "inline",
    "messages": Array [
      Object {
        "column": 8,
        "context": Object {
          "tagName": "video",
        },
        "line": 1,
        "message": "The autoplay attribute is not allowed on <video>",
        "offset": 7,
        "ruleId": "no-autoplay",
        "selector": "video",
        "severity": 2,
        "size": 8,
      },
    ],
    "source": "<video autoplay></video>",
    "warningCount": 0,
  },
]
`;
