// Jest Snapshot v1, https://goo.gl/fbAQLP

exports[`docs/rules/no-inline-style.md inline validation: correct 1`] = `Array []`;

exports[`docs/rules/no-inline-style.md inline validation: incorrect 1`] = `
Array [
  Object {
    "errorCount": 1,
    "filePath": "inline",
    "messages": Array [
      Object {
        "column": 4,
        "context": undefined,
        "line": 1,
        "message": "Inline style is not allowed",
        "offset": 3,
        "ruleId": "no-inline-style",
        "selector": "p",
        "severity": 2,
        "size": 5,
      },
    ],
    "source": "<p style=\\"color: red\\"></p>",
    "warningCount": 0,
  },
]
`;
